/*!
 * CodeX.Tooltips
 * 
 * @version 1.0.2
 * 
 * @licence MIT
 * @author CodeX <https://codex.so>
 * 
 * 
 */

/*!
 * Codex JavaScript Notification module
 * https://github.com/codex-team/js-notifier
 */

/*!
 * Editor.js
 * 
 * @version 2.21.0
 * 
 * @licence Apache-2.0
 * @author CodeX <https://codex.so>
 * 
 * @uses html-janitor
 * @licence Apache-2.0 (https://github.com/guardian/html-janitor/blob/master/LICENSE)
 */

/*!
 * Library for handling keyboard shortcuts
 * @copyright CodeX (https://codex.so)
 * @license MIT
 * @author CodeX (https://codex.so)
 * @version 1.1.1
 */

/**
   * Editor.js
   *
   * Short Description (눈_눈;)
   *
   * @version 2.18.0
   *
   * @license Apache-2.0
   * @author CodeX-Team <https://ifmo.su>
   */

/**
 * Base Paragraph Block for the Editor.js.
 * Represents simple paragraph
 *
 * @author CodeX (team@codex.so)
 * @copyright CodeX 2018
 * @license The MIT License (MIT)
 */
